<svg width="376" height="374" viewBox="0 0 376 374" fill="none"
  xmlns="http://www.w3.org/2000/svg">
  <path d="M376 81.9963V374H79.7697C57.8457 347.796 42.1503 316.005 35.221 280.714L156.955 256.813C164.715 296.333 199.661 325.018 240.048 325.018C286.743 325.018 324.731 287.03 324.731 240.334C324.731 199.946 296.047 165.001 256.527 157.24L280.43 35.5062C316.753 42.6386 349.368 59.0575 376 81.9963Z" fill="#CEF4F0"/>
  <path d="M186.378 93.6212C186.378 42.3162 144.639 0.576172 93.334 0.576172L93.335 0.577172C42.03 0.577172 0.291016 42.3162 0.291016 93.6212C0.291016 144.926 42.03 186.665 93.334 186.665C144.639 186.665 186.378 144.926 186.378 93.6212Z" fill="#CEF4F0"/>
</svg>
